<mxfile host="65bd71144e">
    <diagram id="ObpLbnOcSSLftfgeoyU2" name="Page-1">
        <mxGraphModel dx="858" dy="480" grid="1" gridSize="10" guides="1" tooltips="1" connect="1" arrows="1" fold="1" page="1" pageScale="1" pageWidth="827" pageHeight="1169" background="#ffffff" math="0" shadow="0">
            <root>
                <mxCell id="0"/>
                <mxCell id="1" parent="0"/>
                <mxCell id="FrZijV_DlYl-lp92FZMX-15" value="&lt;span style=&quot;color: rgb(0 , 0 , 0) ; font-family: &amp;#34;helvetica&amp;#34; ; font-size: 12px ; font-style: normal ; font-weight: normal ; letter-spacing: normal ; text-align: center ; text-indent: 0px ; text-transform: none ; word-spacing: 0px ; background-color: rgb(248 , 249 , 250) ; text-decoration: none ; display: inline ; float: none&quot;&gt;VPC: 10.0.0.0/16&amp;nbsp;&lt;/span&gt;" style="text;whiteSpace=wrap;html=1;" parent="1" vertex="1">
                    <mxGeometry x="120" y="140" width="130" height="30" as="geometry"/>
                </mxCell>
                <mxCell id="FrZijV_DlYl-lp92FZMX-2" value="" style="rounded=1;arcSize=10;dashed=0;fillColor=none;gradientColor=none;strokeWidth=2;" parent="1" vertex="1">
                    <mxGeometry x="40" y="140" width="400" height="340" as="geometry"/>
                </mxCell>
                <mxCell id="FrZijV_DlYl-lp92FZMX-3" value="" style="dashed=0;html=1;shape=mxgraph.aws3.virtual_private_cloud;fillColor=#F58536;gradientColor=none;dashed=0;" parent="1" vertex="1">
                    <mxGeometry x="60" y="120" width="52" height="36" as="geometry"/>
                </mxCell>
                <mxCell id="FrZijV_DlYl-lp92FZMX-4" value="" style="rounded=1;arcSize=10;dashed=1;strokeColor=#F59D56;fillColor=none;gradientColor=none;dashPattern=8 4;strokeWidth=2;" parent="1" vertex="1">
                    <mxGeometry x="60" y="170" width="330" height="290" as="geometry"/>
                </mxCell>
                <mxCell id="FrZijV_DlYl-lp92FZMX-7" value="" style="rounded=1;arcSize=10;dashed=0;fillColor=none;gradientColor=none;strokeWidth=2;" parent="1" vertex="1">
                    <mxGeometry x="80" y="211" width="280" height="200" as="geometry"/>
                </mxCell>
                <mxCell id="FrZijV_DlYl-lp92FZMX-8" value="" style="dashed=0;html=1;shape=mxgraph.aws3.permissions;fillColor=#D9A741;gradientColor=none;dashed=0;" parent="1" vertex="1">
                    <mxGeometry x="100" y="190" width="30" height="35" as="geometry"/>
                </mxCell>
                <mxCell id="FrZijV_DlYl-lp92FZMX-11" value="Availbility Zone 1" style="text;html=1;strokeColor=none;fillColor=none;align=center;verticalAlign=middle;whiteSpace=wrap;rounded=0;" parent="1" vertex="1">
                    <mxGeometry x="100" y="433" width="240" height="16" as="geometry"/>
                </mxCell>
                <mxCell id="FrZijV_DlYl-lp92FZMX-13" value="Subnet: 10.0.1.0/24&amp;nbsp;" style="text;html=1;strokeColor=none;fillColor=none;align=center;verticalAlign=middle;whiteSpace=wrap;rounded=0;" parent="1" vertex="1">
                    <mxGeometry x="100" y="380" width="240" height="16" as="geometry"/>
                </mxCell>
                <mxCell id="h23xzCT8fEpse55xp_8g-2" value="" style="outlineConnect=0;dashed=0;verticalLabelPosition=bottom;verticalAlign=top;align=center;html=1;shape=mxgraph.aws3.internet_gateway;fillColor=#F58536;gradientColor=none;" parent="1" vertex="1">
                    <mxGeometry x="252.5" y="95" width="69" height="72" as="geometry"/>
                </mxCell>
                <mxCell id="h23xzCT8fEpse55xp_8g-3" value="" style="outlineConnect=0;dashed=0;verticalLabelPosition=bottom;verticalAlign=top;align=center;html=1;shape=mxgraph.aws3.router;fillColor=#F58536;gradientColor=none;" parent="1" vertex="1">
                    <mxGeometry x="251.5" y="179" width="69" height="72" as="geometry"/>
                </mxCell>
                <mxCell id="h23xzCT8fEpse55xp_8g-4" value="route table" style="shape=table;startSize=28;container=1;collapsible=0;childLayout=tableLayout;fontStyle=1;align=center;pointerEvents=1;" parent="1" vertex="1">
                    <mxGeometry x="520" y="211" width="230" height="104" as="geometry"/>
                </mxCell>
                <mxCell id="h23xzCT8fEpse55xp_8g-5" value="" style="shape=partialRectangle;html=1;whiteSpace=wrap;collapsible=0;dropTarget=0;pointerEvents=0;fillColor=none;top=0;left=0;bottom=0;right=0;points=[[0,0.5],[1,0.5]];portConstraint=eastwest;" parent="h23xzCT8fEpse55xp_8g-4" vertex="1">
                    <mxGeometry y="28" width="230" height="23" as="geometry"/>
                </mxCell>
                <mxCell id="h23xzCT8fEpse55xp_8g-6" value="Destination" style="shape=partialRectangle;html=1;whiteSpace=wrap;connectable=0;fillColor=none;top=0;left=0;bottom=0;right=0;overflow=hidden;pointerEvents=1;" parent="h23xzCT8fEpse55xp_8g-5" vertex="1">
                    <mxGeometry width="120" height="23" as="geometry">
                        <mxRectangle width="120" height="23" as="alternateBounds"/>
                    </mxGeometry>
                </mxCell>
                <mxCell id="h23xzCT8fEpse55xp_8g-7" value="Target" style="shape=partialRectangle;html=1;whiteSpace=wrap;connectable=0;fillColor=none;top=0;left=0;bottom=0;right=0;overflow=hidden;pointerEvents=1;" parent="h23xzCT8fEpse55xp_8g-5" vertex="1">
                    <mxGeometry x="120" width="110" height="23" as="geometry">
                        <mxRectangle width="110" height="23" as="alternateBounds"/>
                    </mxGeometry>
                </mxCell>
                <mxCell id="h23xzCT8fEpse55xp_8g-13" value="" style="shape=partialRectangle;html=1;whiteSpace=wrap;collapsible=0;dropTarget=0;pointerEvents=0;fillColor=none;top=0;left=0;bottom=0;right=0;points=[[0,0.5],[1,0.5]];portConstraint=eastwest;" parent="h23xzCT8fEpse55xp_8g-4" vertex="1">
                    <mxGeometry y="51" width="230" height="22" as="geometry"/>
                </mxCell>
                <mxCell id="h23xzCT8fEpse55xp_8g-14" value="10.0.0.0/16" style="shape=partialRectangle;html=1;whiteSpace=wrap;connectable=0;fillColor=none;top=0;left=0;bottom=0;right=0;overflow=hidden;pointerEvents=1;" parent="h23xzCT8fEpse55xp_8g-13" vertex="1">
                    <mxGeometry width="120" height="22" as="geometry">
                        <mxRectangle width="120" height="22" as="alternateBounds"/>
                    </mxGeometry>
                </mxCell>
                <mxCell id="h23xzCT8fEpse55xp_8g-15" value="local" style="shape=partialRectangle;html=1;whiteSpace=wrap;connectable=0;fillColor=none;top=0;left=0;bottom=0;right=0;overflow=hidden;pointerEvents=1;" parent="h23xzCT8fEpse55xp_8g-13" vertex="1">
                    <mxGeometry x="120" width="110" height="22" as="geometry">
                        <mxRectangle width="110" height="22" as="alternateBounds"/>
                    </mxGeometry>
                </mxCell>
                <mxCell id="h23xzCT8fEpse55xp_8g-9" value="" style="shape=partialRectangle;html=1;whiteSpace=wrap;collapsible=0;dropTarget=0;pointerEvents=0;fillColor=none;top=0;left=0;bottom=0;right=0;points=[[0,0.5],[1,0.5]];portConstraint=eastwest;" parent="h23xzCT8fEpse55xp_8g-4" vertex="1">
                    <mxGeometry y="73" width="230" height="31" as="geometry"/>
                </mxCell>
                <mxCell id="h23xzCT8fEpse55xp_8g-10" value="&lt;b&gt;0.0.0.0/0&lt;/b&gt;" style="shape=partialRectangle;html=1;whiteSpace=wrap;connectable=0;fillColor=none;top=0;left=0;bottom=0;right=0;overflow=hidden;pointerEvents=1;" parent="h23xzCT8fEpse55xp_8g-9" vertex="1">
                    <mxGeometry width="120" height="31" as="geometry">
                        <mxRectangle width="120" height="31" as="alternateBounds"/>
                    </mxGeometry>
                </mxCell>
                <mxCell id="h23xzCT8fEpse55xp_8g-11" value="&lt;b&gt;igw_xxx&lt;/b&gt;" style="shape=partialRectangle;html=1;whiteSpace=wrap;connectable=0;fillColor=none;top=0;left=0;bottom=0;right=0;overflow=hidden;pointerEvents=1;" parent="h23xzCT8fEpse55xp_8g-9" vertex="1">
                    <mxGeometry x="120" width="110" height="31" as="geometry">
                        <mxRectangle width="110" height="31" as="alternateBounds"/>
                    </mxGeometry>
                </mxCell>
                <mxCell id="h23xzCT8fEpse55xp_8g-27" value="internet gateway&lt;br&gt;(&lt;b&gt;igw_xxx&lt;/b&gt;)" style="text;html=1;strokeColor=none;fillColor=none;align=center;verticalAlign=middle;whiteSpace=wrap;rounded=0;" parent="1" vertex="1">
                    <mxGeometry x="213" y="69" width="151" height="16" as="geometry"/>
                </mxCell>
                <mxCell id="h23xzCT8fEpse55xp_8g-28" value="route table" style="text;html=1;strokeColor=none;fillColor=none;align=center;verticalAlign=middle;whiteSpace=wrap;rounded=0;" parent="1" vertex="1">
                    <mxGeometry x="252.5" y="253" width="68.5" height="16" as="geometry"/>
                </mxCell>
                <mxCell id="h23xzCT8fEpse55xp_8g-30" value="" style="curved=1;endArrow=classic;html=1;rounded=0;entryX=0.855;entryY=0.145;entryDx=0;entryDy=0;entryPerimeter=0;exitX=0;exitY=0.5;exitDx=0;exitDy=0;dashed=1;" parent="1" source="h23xzCT8fEpse55xp_8g-13" target="h23xzCT8fEpse55xp_8g-3" edge="1">
                    <mxGeometry width="50" height="50" relative="1" as="geometry">
                        <mxPoint x="630" y="210" as="sourcePoint"/>
                        <mxPoint x="440" y="290" as="targetPoint"/>
                        <Array as="points">
                            <mxPoint x="450" y="270"/>
                            <mxPoint x="490" y="150"/>
                            <mxPoint x="400" y="100"/>
                        </Array>
                    </mxGeometry>
                </mxCell>
            </root>
        </mxGraphModel>
    </diagram>
</mxfile>